1801	2	210.049	2.497	0.00135675	-5.46309e-06
1801	3	210.116	2.49145	0.00128479	-4.74529e-06
1801	4	210.19	2.49387	0.00129073	-5.64394e-06
1801	5	210.031	2.49256	0.00130944	-5.50974e-06
1801	6	209.889	2.49182	0.0013805	-2.2957e-06
1801	7	210.211	2.48841	0.00123254	-4.94289e-06
1801	8	210.036	2.49573	0.00133282	-7.2047e-06
1801	9	210.088	2.49337	0.00129372	-4.82376e-06
1801	10	210.159	2.49534	0.00127649	-6.5297e-06
1801	11	210.114	2.49587	0.00132494	-9.50086e-06
