2101	2	210.088	2.49399	0.00132233	-6.61618e-06
2101	3	210.069	2.48855	0.00127218	-5.13891e-06
2101	4	209.931	2.49284	0.00137977	-5.39377e-06
2101	5	210.088	2.49221	0.00131683	-5.54762e-06
2101	6	210.147	2.49256	0.00128872	-5.4051e-06
2101	7	209.992	2.493	0.00134648	-5.166e-06
2101	8	209.983	2.49398	0.00134645	-4.49166e-06
2101	9	209.927	2.49232	0.00135626	-5.0127e-06
2101	10	210.323	2.49463	0.00138876	-8.53746e-06
2101	11	209.968	2.49349	0.00134399	-5.76648e-06
