2301	2	210.298	2.48976	0.00120201	-3.30085e-06
2301	3	210.094	2.49133	0.0012844	-4.6895e-06
2301	4	210.098	2.49165	0.00129212	-4.72614e-06
2301	5	209.949	2.4926	0.00133865	-5.05248e-06
2301	6	210.075	2.49211	0.00133195	-5.01652e-06
2301	7	209.872	2.4954	0.00133794	-5.98205e-06
2301	8	209.983	2.49131	0.00117317	1.03582e-06
2301	9	0	0	0	0
2301	10	0	0	0	0
2301	11	0	0	0	0
