2401	2	210.052	2.49308	0.00131675	-4.20128e-06
2401	3	209.995	2.49246	0.00128774	-4.02867e-06
2401	4	209.975	2.48967	0.00132248	-2.43502e-06
2401	5	210.022	2.48515	0.00128346	1.56343e-06
2401	6	210.137	2.49442	0.00130061	-5.08834e-06
2401	7	210.049	2.49511	0.00132705	-8.05517e-06
2401	8	210.114	2.49446	0.0013279	-6.37791e-06
2401	9	209.922	2.49105	0.00134805	-1.42012e-06
2401	10	210.048	2.49168	0.00129829	-2.67586e-06
2401	11	210.112	2.49284	0.00129317	-5.10669e-06
