3107	2	210.078	2.49419	0.00131922	-5.37445e-06
3107	3	209.99	2.49174	0.00132546	-4.46737e-06
3107	4	210.098	2.49299	0.00130496	-5.69182e-06
3107	5	210.082	2.49007	0.00130875	-3.49362e-06
3107	6	209.984	2.49313	0.00133138	-4.74834e-06
3107	7	209.976	2.49156	0.00129539	-4.8316e-06
3107	8	210.153	2.48569	0.00128706	-3.9704e-07
3107	9	210.115	2.48792	0.00125541	-3.70514e-06
3107	10	210.039	2.49302	0.001318	-5.35292e-06
3107	11	210.119	2.48967	0.00127102	-4.21989e-06
